{
    "/js/dashboard.js": "/js/dashboard.js",
    "/js/homepage.js": "/js/homepage.js",
    "/js/manifest.js": "/js/manifest.js",
    "/js/vendor.js": "/js/vendor.js",
    "/js/homepage.2e08ee7182ee260754fb.hot-update.js": "/js/homepage.2e08ee7182ee260754fb.hot-update.js"
}
